\relax 
\citation{roddier1999adaptive,booth2007adaptive,booth2014adaptive,ji2017adaptive}
\citation{OFAO-AO,banerjee2019refractive}
\citation{pidata}
\providecommand \oddpage@label [2]{}
\@writefile{toc}{\contentsline {section}{\numberline {1}INTRODUCTION}{1}\protected@file@percent }
\@writefile{toc}{\contentsline {section}{\numberline {2}CONCEPT}{1}\protected@file@percent }
\newlabel{sec:hardware-1}{{2}{1}}
\citation{OFAO-control-ao,OFAO-control-PW}
\citation{OFAO-AO}
\@writefile{lof}{\contentsline {figure}{\numberline {1}{\ignorespaces Cross-sectional schematic of the DPP showing the working principle of the wavefront modulator. (a) The shape of the suspended polyimide membrane can be manipulated by the electrostatic forces between the individually addressable electrodes. This displaces the encapsulated optical liquid and affects the light refracting within the free aperture. The various functional components are labeled. (b) The bi-directional actuation mode is explained. The hydrostatic pressure of the encapsulated incompressible liquid is coupled with the displacement of the polyimide membrane. The annular electrode can be addressed to create large negative displacement within the free aperture.}}{2}\protected@file@percent }
\newlabel{fig:concept}{{1}{2}}
\@writefile{toc}{\contentsline {section}{\numberline {3}RESULTS}{2}\protected@file@percent }
\@writefile{toc}{\contentsline {section}{\numberline {4}CONCLUSION}{2}\protected@file@percent }
\newlabel{sec:conclusion}{{4}{2}}
\bibstyle{ieeetr}
\bibdata{references}
\bibcite{roddier1999adaptive}{{1}{}{{}}{{}}}
\bibcite{booth2007adaptive}{{2}{}{{}}{{}}}
\bibcite{booth2014adaptive}{{3}{}{{}}{{}}}
\bibcite{ji2017adaptive}{{4}{}{{}}{{}}}
\bibcite{OFAO-AO}{{5}{}{{}}{{}}}
\bibcite{banerjee2019refractive}{{6}{}{{}}{{}}}
\@writefile{lof}{\contentsline {figure}{\numberline {2}{\ignorespaces The assembled deformable phase plate.}}{3}\protected@file@percent }
\newlabel{fig:device}{{2}{3}}
\@writefile{lof}{\contentsline {figure}{\numberline {3}{\ignorespaces Illustration of the DPP specifying the dimensions of the various features. (a) 3D dimetric view, (b) top view, and (c) dimension of the electrode array. }}{3}\protected@file@percent }
\newlabel{fig:dimensions}{{3}{3}}
\bibcite{pidata}{{7}{}{{}}{{}}}
\bibcite{OFAO-control-ao}{{8}{}{{}}{{}}}
\bibcite{OFAO-control-PW}{{9}{}{{}}{{}}}
\providecommand\NAT@force@numbers{}\NAT@force@numbers
\@writefile{lof}{\contentsline {figure}{\numberline {4}{\ignorespaces (a) Post assembly wavefront influenced by the DPP's initial flatness with no actuation; (b) active best-flat configuration with use of the control system; (c) characterization of the two wavefront profiles in terms of the amplitudes of the first 18 Zernike polynomial coefficients except tip, tilt and piston.}}{4}\protected@file@percent }
\newlabel{fig:init}{{4}{4}}
\@writefile{lof}{\contentsline {figure}{\numberline {5}{\ignorespaces Surface plots of the Zernike polynomial sequence up to 5\relax th radial order, empirically measured, as generated by the DPP. Target coefficient amplitude of \SI {0.7}{\micro \meter } for each coefficient.}}{5}\protected@file@percent }
\newlabel{fig:tree}{{5}{5}}
\@writefile{lot}{\contentsline {table}{\numberline {1}{\ignorespaces RMS error and purity of up to 5\relax th order Zernike polynomials generated with the DPP.}}{5}\protected@file@percent }
\newlabel{tab:tab}{{1}{5}}
